{
  "_class": "symbolInstance",
  "booleanOperation": -1,
  "clippingMaskMode": 0,
  "do_objectID": "0CCB589B-6A3B-433A-8A5E-948751285D80",
  "exportOptions": {
    "_class": "exportOptions",
    "do_objectID": "73845CE8-C510-4A44-8875-E80D875509CE",
    "exportFormats": [
    ],
    "includedLayerIds": [
    ],
    "layerOptions": 0,
    "shouldTrim": false
  },
  "frame": {
    "_class": "rect",
    "constrainProportions": false,
    "do_objectID": "31DF1D63-539C-4B2D-B41F-EE8AF3EEBFA7",
    "height": 28,
    "width": 18,
    "x": 233,
    "y": 537
  },
  "hasClippingMask": false,
  "horizontalSpacing": 0,
  "isFixedToViewport": false,
  "isFlippedHorizontal": false,
  "isFlippedVertical": false,
  "isLocked": false,
  "isVisible": true,
  "layerListExpandedType": 0,
  "name": "Mouse",
  "nameIsFixed": false,
  "overrideValues": [
  ],
  "resizingConstraint": 63,
  "resizingType": 0,
  "rotation": 0,
  "scale": 1,
  "shouldBreakMaskChain": false,
  "style": {
    "_class": "style",
    "do_objectID": "BFA3D836-CA6F-4CC2-8EA4-06FFFFFD37C2",
    "endMarkerType": 0,
    "miterLimit": 10,
    "startMarkerType": 0,
    "windingRule": 1
  },
  "symbolID": "9FE0881F-11C6-4650-BB04-6560E04E1157",
  "verticalSpacing": 0
}